…
invert_all_comp <- invert_all_comp %>% 
  mutate(rel_abun_per = rel_abun*100) 

#non working code 

invert_all_comp %>% 
  group_by(region, date, orgnsm, set) %>% 
  mutate(rel_abun_new = count/sum(count)) %>% 
  select(rel_abun_new, rel_abun, date, orgnsm,count) %>% 
  print(n=20)
```

    ## Adding missing grouping variables: `region`, `set`

    ## Source: local data frame [896 x 7]
    ## Groups: region, date, orgnsm, set [478]
    ## 
    ##    region   set rel_abun_new    rel_abun       date         orgnsm
    ##     <chr> <dbl>        <dbl>       <dbl>     <date>          <chr>
    ## 1  Fraser   1.1   0.38223938 0.070063694 2016-07-12     Cladoceran
    ## 2  Fraser   1.1   1.00000000 0.076433121 2016-07-12   Phyllodocida
    ## 3  Fraser   1.1   0.13043478 0.012738854 2016-07-12 Appendicularia
    ## 4  Fraser   1.1   0.16998012 0.484076433 2016-07-12         Harpac
    ## 5  Fraser   1.1   0.37163375 0.292993631 2016-07-12       Calanoid
    ## 6  Fraser   1.1   0.31034483 0.012738854 2016-07-12      Brachyura
    ## 7  Fraser   1.1   0.28571429 0.050955414 2016-07-12       Barnacle
    ## 8  Fraser   2.1   1.00000000 0.007905138 2016-07-12       Gammarid
    ## 9  Fraser   2.1   0.25000000 0.007905138 2016-07-12   Phyllodocida
    ## 10 Fraser   2.1   0.84210526 0.015810277 2016-07-12 Appendicularia
    ## 11 Fraser   2.1   0.74285714 0.154150198 2016-07-12         Harpac
    ## 12 Fraser   2.1   0.94144661 0.810276680 2016-07-12       Calanoid
    ## 13 Fraser   2.1   1.00000000 0.003952569 2016-07-12         Mysida
    ## 14 Fraser   2.1   1.00000000 0.078431373 2016-07-12     Cladoceran
    ## 15 Fraser   2.1   0.75000000 0.156862745 2016-07-12   Phyllodocida
    ## 16 Fraser   2.1   0.15789474 0.019607843 2016-07-12 Appendicularia
    ## 17 Fraser   2.1   0.25714286 0.352941176 2016-07-12         Harpac
    ## 18 Fraser   2.1   0.05855339 0.333333333 2016-07-12       Calanoid
    ## 19 Fraser   2.1   1.00000000 0.058823529 2016-07-12       Barnacle
    ## 20 Fraser   1.1   1.00000000 0.009049774 2016-07-12       Gammarid
    ## # ... with 876 more rows, and 1 more variables: count <dbl>

Put into respective regions for plots
=====================================

``` r
(invert_all_comp_reg <- invert_all_comp %>% 
  mutate(eel = ifelse(eel == 1, "Eelgrass", eel)))
```

    ## # A tibble: 896 × 16
    ##    region       date   set          location      eel Paired  comp
    ##     <chr>     <date> <dbl>             <chr>    <chr>  <int> <int>
    ## 1  Fraser 2016-07-12   1.1     MRB SF FR 016        0     NA     1
    ## 2  Fraser 2016-07-12   1.1     MRB SF FR 016        0     NA     1
    ## 3  Fraser 2016-07-12   1.1     MRB SF FR 016        0     NA     1
    ## 4  Fraser 2016-07-12   1.1     MRB SF FR 016        0     NA     1
    ## 5  Fraser 2016-07-12   1.1     MRB SF FR 016        0     NA     1
    ## 6  Fraser 2016-07-12   1.1     MRB SF FR 016        0     NA     1
    ## 7  Fraser 2016-07-12   1.1     MRB SF FR 016        0     NA     1
    ## 8  Fraser 2016-07-12   2.1 MRB FR 017B (NEW) Eelgrass     NA     1
    ## 9  Fraser 2016-07-12   2.1 MRB FR 017B (NEW) Eelgrass     NA     1
    ## 10 Fraser 2016-07-12   2.1 MRB FR 017B (NEW) Eelgrass     NA     1
    ## # ... with 886 more rows, and 9 more variables: date_proc <chr>,
    ## #   proc <chr>, `1_frac_corr` <dbl>, sz_frac <int>, orgnsm <chr>,
    ## #   count <dbl>, rel_abun <dbl>, Sum <dbl>, rel_abun_per <dbl>
…
