…
Summarize Data for mean, n and total across the regions for each respective individual and habitat.
===================================================================================================

``` r
SE <- function(x) sd(x)/sqrt(length(x))

(invert_mean <- invert_all_digested %>% 
  select(region, habitat, rel_abun_per, sz_orgnsm, count) %>% 
   group_by(region, sz_orgnsm, habitat) %>% 
   summarise(mean_abun_per = mean(rel_abun_per), SE = SE(rel_abun_per), n= n_distinct(rel_abun_per), total= sum(count)))
```

    ## Source: local data frame [256 x 7]
    ## Groups: region, sz_orgnsm [?]
    ## 
    ##     region        sz_orgnsm habitat mean_abun_per         SE     n
    ##      <chr>            <chr>   <chr>         <dbl>      <dbl> <int>
    ## 1  Bedwell 1_Appendicularia  No_Eel    16.8674699         NA     1
    ## 2  Bedwell       1_Calanoid     Eel     4.0834474  1.7305062     2
    ## 3  Bedwell       1_Calanoid  No_Eel    17.8115760 13.4975520     3
    ## 4  Bedwell     1_Cladoceran     Eel     0.7594682  0.4170024     2
    ## 5  Bedwell     1_Cladoceran  No_Eel     1.2689167  0.2236206     2
    ## 6  Bedwell        1_Cumacea     Eel    11.1128813  7.5156925     4
    ## 7  Bedwell        1_Cumacea  No_Eel    12.8148456  2.8645968     2
    ## 8  Bedwell       1_Gammarid     Eel     4.4612059  1.0048595     3
    ## 9  Bedwell       1_Gammarid  No_Eel     2.7273899  0.1688072     3
    ## 10 Bedwell         1_Harpac     Eel    74.2944605 10.6591816     4
    ## # ... with 246 more rows, and 1 more variables: total <dbl>
…
spread_n[is.na(spread_n)] <- 0
```

Take the difference between Eel and Non Eel, add the n and add the SE.
======================================================================

``` r
  (spread_mean <- spread_mean %>% 
  mutate(Hab_diff = Eel - No_Eel) %>% 
  select(region, sz_orgnsm, Hab_diff))
```

    ## Source: local data frame [170 x 3]
    ## Groups: region, sz_orgnsm [170]
    ## 
    ##     region        sz_orgnsm    Hab_diff
    ##      <chr>            <chr>       <dbl>
    ## 1  Bedwell 1_Appendicularia -16.8674699
    ## 2  Bedwell       1_Calanoid -13.7281287
    ## 3  Bedwell     1_Cladoceran  -0.5094485
    ## 4  Bedwell        1_Cumacea  -1.7019644
    ## 5  Bedwell       1_Gammarid   1.7338161
    ## 6  Bedwell         1_Harpac  16.4549968
    ## 7  Bedwell       1_Ostracod  -2.8022538
    ## 8  Bedwell   1_Phyllodocida   0.4733492
    ## 9  Bedwell      1_Valvifera  -0.4975124
    ## 10 Bedwell      2_Brachyura   0.3424658
    ## # ... with 160 more rows

``` r
  (spread_SE <- spread_SE %>% 
  mutate(SE_Total = Eel + No_Eel) %>% 
  select(region, sz_orgnsm, SE_Total))
```

    ## Source: local data frame [170 x 3]
    ## Groups: region, sz_orgnsm [170]
    ## 
    ##     region        sz_orgnsm  SE_Total
    ##      <chr>            <chr>     <dbl>
    ## 1  Bedwell 1_Appendicularia  0.000000
    ## 2  Bedwell       1_Calanoid 15.228058
    ## 3  Bedwell     1_Cladoceran  0.640623
    ## 4  Bedwell        1_Cumacea 10.380289
    ## 5  Bedwell       1_Gammarid  1.173667
    ## 6  Bedwell         1_Harpac 25.724280
    ## 7  Bedwell       1_Ostracod  0.812204
    ## 8  Bedwell   1_Phyllodocida  2.429262
    ## 9  Bedwell      1_Valvifera  0.000000
    ## 10 Bedwell      2_Brachyura  0.000000
    ## # ... with 160 more rows

``` r
  (spread_ntot <- spread_n %>% 
    mutate(n_total= Eel + No_Eel) %>% 
  select(region, sz_orgnsm, n_total))
```

    ## Source: local data frame [170 x 3]
    ## Groups: region, sz_orgnsm [170]
    ## 
    ##     region        sz_orgnsm n_total
    ##      <chr>            <chr>   <dbl>
    ## 1  Bedwell 1_Appendicularia       1
    ## 2  Bedwell       1_Calanoid       5
    ## 3  Bedwell     1_Cladoceran       4
    ## 4  Bedwell        1_Cumacea       6
    ## 5  Bedwell       1_Gammarid       6
    ## 6  Bedwell         1_Harpac       7
    ## 7  Bedwell       1_Ostracod       2
    ## 8  Bedwell   1_Phyllodocida       7
    ## 9  Bedwell      1_Valvifera       1
    ## 10 Bedwell      2_Brachyura       1
    ## # ... with 160 more rows

``` r
  (joined <- full_join(spread_mean,spread_SE))
```

    ## Joining, by = c("region", "sz_orgnsm")

    ## Source: local data frame [170 x 4]
    ## Groups: region, sz_orgnsm [?]
    ## 
    ##     region        sz_orgnsm    Hab_diff  SE_Total
    ##      <chr>            <chr>       <dbl>     <dbl>
    ## 1  Bedwell 1_Appendicularia -16.8674699  0.000000
    ## 2  Bedwell       1_Calanoid -13.7281287 15.228058
    ## 3  Bedwell     1_Cladoceran  -0.5094485  0.640623
    ## 4  Bedwell        1_Cumacea  -1.7019644 10.380289
    ## 5  Bedwell       1_Gammarid   1.7338161  1.173667
    ## 6  Bedwell         1_Harpac  16.4549968 25.724280
    ## 7  Bedwell       1_Ostracod  -2.8022538  0.812204
    ## 8  Bedwell   1_Phyllodocida   0.4733492  2.429262
    ## 9  Bedwell      1_Valvifera  -0.4975124  0.000000
    ## 10 Bedwell      2_Brachyura   0.3424658  0.000000
    ## # ... with 160 more rows
…
